<?xml version="1.0" standalone="yes"?>
<svg xmlns="http://www.w3.org/2000/svg" width="400" height="323">
<path style="fill:#ffffff; stroke:none;" d="M0 0L0 152C3.64791 147.182 6.8265 142.509 12 139.108C24.5294 130.872 42.7394 134 57 134L138 134C135.188 127.315 130.311 121.266 126.603 115C119.635 103.222 113.077 89.7244 111.289 76C105.571 32.101 152.368 1.02612 192 1C186.784 -1.1889 179.619 0 174 0L135 0L0 0z"/>
<path style="fill:#97b512; stroke:none;" d="M138 134L43 134C28.7118 134 13.0782 132.889 3.63812 146.004C-3.64864 156.127 0 175.075 0 187L0 267L0 291C0 295.518 -0.629539 300.614 0.638117 305C3.76556 315.82 16.3546 322.477 27 322.961C55.5386 324.258 84.429 323 113 323L285 323L352 323C364.191 323 377.018 324.676 388 318.319C402.714 309.803 400 294.607 400 280L400 181C400 167.761 403.471 150.808 391.985 141.38C380.357 131.836 364.986 134 351 134L262 134C273.3 115.672 287.347 96.3111 288.91 74C291.028 43.7929 271.724 21.0048 245 9.28394C200.442 -10.2586 125.087 0.8927 111.899 56C110.466 61.9873 110.642 68.8779 111.09 75C112.716 97.1839 127.483 115.519 138 134z"/>
<path style="fill:#ffffff; stroke:none;" d="M208 0C212.74 1.99332 218.884 1.80032 224 2.80402C232.645 4.49994 241.186 7.39136 249 11.4861C256.556 15.4456 263.794 20.1872 269.985 26.0895C274.512 30.4045 278.655 35.5225 281.688 41C294.616 64.3502 287.718 88.8147 275.691 111C271.449 118.825 265.797 125.973 262 134L359 134C375.082 134 391.549 135.061 399 152C400.875 147.531 400 141.809 400 137L400 106L400 0L208 0z"/>
<path style="fill:#010101; stroke:none;" d="M182 1L183 2L182 1M231 4L232 5L231 4M240 7L241 8L240 7M247 10L248 11L247 10M189 11L190 12L189 11z"/>
<path style="fill:#ffffff; stroke:none;" d="M190 11.4252C179.945 12.7938 170.278 14.9484 161 19.1782C154.128 22.3113 147.717 26.3437 142.004 31.3001C138.423 34.407 135.39 38.0705 132.749 42C111.004 74.3551 139.111 114.461 159.211 140C168.162 151.374 177.72 162.154 187.285 173C190.023 176.103 195.422 183.793 200 183.793C204.688 183.793 209.68 176.159 212.424 173C221.677 162.348 231.217 152.074 239.997 141C254.467 122.75 272.26 98.9574 274.826 75C279.605 30.3911 228.508 6.18338 190 11.4252z"/>
<path style="fill:#010101; stroke:none;" d="M160 19L161 20L160 19M133 22L134 23L133 22M248 24L249 25L248 24M148 26L149 27L148 26M124 31L125 32L124 31M197 34L198 35L197 34z"/>
<path style="fill:#80b301; stroke:none;" d="M198 34C199.506 34.683 200.315 34.8259 202 35C200.494 34.317 199.685 34.1741 198 34z"/>
<path style="fill:#97b512; stroke:none;" d="M189 35.4391C166.785 38.9358 143.641 62.835 160.532 85C171.993 100.039 192.024 104.268 210 101.7C232.366 98.5043 256.54 74.4033 239.468 52C227.76 36.6371 207.288 32.5605 189 35.4391z"/>
<path style="fill:#010101; stroke:none;" d="M227 41L228 42L227 41M116 43L117 44L116 43z"/>
<path style="fill:#ffffff; stroke:none;" d="M170 68C175.505 74.7627 184.023 79.9059 191 85.1265C193.495 86.9934 196.646 90.1705 200 90.0571C203.653 89.9335 207.247 86.1904 210 84.1265C216.686 79.1148 223.455 74.1942 230 69C224.434 61.7439 215.312 56.5632 208 51.1273C205.514 49.2787 202.381 46.2537 199 46.8163C195.682 47.3684 192.59 50.6763 190 52.6258C183.291 57.6764 176.352 62.5033 170 68z"/>
<path style="fill:#010101; stroke:none;" d="M235 47L236 48L235 47M236 48L237 49L236 48M162 49L163 50L162 49M194 49L195 50L194 49M127 52L128 53L127 52M190 52L191 53L190 52M126 55L127 56L126 55M177 74L178 75L177 74M181 77L182 78L181 77M112 82L113 83L112 82M206 86L207 87L206 86M163 88L164 89L163 88M114 89L115 90L114 89M164 89L165 90L164 89M202 89L203 90L202 89M172 95L173 96L172 95M117 97L118 98L117 97M267 97L268 98L267 97M184 100L185 101L184 100M135 103L136 104L135 103M259 112L260 113L259 112M131 123L132 124L131 123M268 123L269 124L268 123M135 129L136 130L135 129M262 132L263 133L262 132M383 136L384 137L383 136M387 138L388 139L387 138M161 142L162 143L161 142M238 142L239 143L238 142z"/>
<path style="fill:#ffffff; stroke:none;" d="M56 313L56 144C49.0611 144 39.5962 142.321 33 144.589C28.939 145.985 25.3895 149.582 22 152.127C19.3087 154.147 15.7174 156.156 14.0278 159.174C10.5676 165.353 13 178.033 13 185L13 248L13 284C13 288.439 11.8154 294.915 14.6034 298.7C18.2438 303.643 28.0469 311.013 34 312.57C40.6848 314.319 49.1115 313 56 313M70 144L70 313L330 313L330 144L276 144C269.782 144 259.661 142.088 254.039 145.028C250.808 146.717 248.527 150.265 246.247 153C241.67 158.489 236.581 163.798 233 170C246.393 175.937 261.099 179.7 275 184.333C280.322 186.107 288.916 187.334 292.397 192.133C294.434 194.943 293.999 198.724 294 202L294 224L294 251C294 255.138 294.829 260.338 292.397 263.956C288.037 270.441 276.959 272.014 270 274.333C256.013 278.996 241.81 283.262 228 288.424C219.673 291.537 208.989 297.071 200 297.071C192.491 297.071 184.043 292.703 177 290.333C161.32 285.054 145.702 279.567 130 274.333C123.041 272.014 111.963 270.441 107.603 263.956C105.171 260.338 106 255.138 106 251L106 224L106 202C106.001 198.724 105.566 194.943 107.603 192.133C111.084 187.334 119.678 186.107 125 184.333C138.901 179.7 153.607 175.937 167 170C163.752 163.705 158.448 158.422 153.92 153C151.597 150.218 149.291 146.722 145.985 145.028C140.083 142.003 129.512 144 123 144L70 144M344 144L344 313C350.981 313 360.374 314.639 367 312.272C371.065 310.821 374.594 307.433 378 304.873C380.369 303.093 383.441 301.325 384.972 298.7C386.713 295.716 386 291.312 386 288L386 266L386 189L386 168C386 164.944 386.579 161.055 384.972 158.3C383.436 155.666 380.361 153.921 378 152.116C374.598 149.515 371.15 145.911 367 144.564C360.303 142.391 351.008 144 344 144z"/>
<path style="fill:#010101; stroke:none;" d="M28 147L29 148L28 147M165 147L166 148L165 147M1 149L2 150L1 149M249 149L250 150L249 149M24 150L25 151L24 150M375 150L376 151L375 150M20 153L21 154L20 153M170 153L171 154L170 153M379 153L380 154L379 153M244 155L245 156L244 155M16 156L17 157L16 156z"/>
<path style="fill:#8ab101; stroke:none;" d="M386 159L386 298C387.552 294.301 387 289.983 387 286L387 263L387 191L387 170C387 166.298 387.441 162.435 386 159z"/>
<path style="fill:#010101; stroke:none;" d="M222 161L223 162L222 161M239 161L240 162L239 161M212 172L213 173L212 172z"/>
<path style="fill:#ffffff; stroke:none;" d="M132 194C136.208 196.648 141.351 197.686 146 199.424C156.554 203.37 167.311 206.77 178 210.333C184.739 212.58 192.826 216.813 200 216.813C207.174 216.813 215.261 212.58 222 210.333C232.372 206.876 242.703 203.357 253 199.692C257.974 197.922 263.52 196.819 268 194C258.041 189.585 247.335 186.445 237 183C233.343 181.781 227.866 178.748 224 180.212C215.096 183.584 210.411 198.934 200 198.934C189.589 198.934 184.904 183.584 176 180.212C172.134 178.748 166.657 181.781 163 183C152.627 186.458 141.998 189.547 132 194z"/>
<path style="fill:#010101; stroke:none;" d="M255 189L256 190L255 189M258 190L259 191L258 190z"/>
<path style="fill:#97b512; stroke:none;" d="M360.668 191.028C354.761 195.532 364.646 201.706 369.566 197.907C376.093 192.866 365.318 187.483 360.668 191.028z"/>
<path style="fill:#010101; stroke:none;" d="M138 191L139 192L138 191M261 191L262 192L261 191M135 192L136 193L135 192M132 193L133 194L132 193M143 198L144 199L143 198M203 198L204 199L203 198M369 198L370 199L369 198M146 199L147 200L146 199z"/>
<path style="fill:#808001; stroke:none;" d="M199.667 199.333C199.222 199.778 200.278 199.722 200.333 199.667C200.778 199.222 199.722 199.278 199.667 199.333z"/>
<path style="fill:#010101; stroke:none;" d="M253 199L254 200L253 199M250 200L251 201L250 200z"/>
<path style="fill:#ffffff; stroke:none;" d="M120 203L120 243C120 247.165 118.525 254.926 121.028 258.49C124.107 262.874 135.103 264.368 140 266C157.701 271.9 175.263 278.229 193 284L193 245C193 240.361 194.472 232.656 192.397 228.419C190.142 223.818 178.529 222.182 174 220.667C156.568 214.835 138.221 205.691 120 203M207 284C224.734 278.23 242.301 271.9 260 266C264.897 264.368 275.893 262.874 278.972 258.49C281.475 254.926 280 247.165 280 243L280 203C261.81 205.686 243.423 214.859 226 220.667C221.473 222.176 209.856 223.822 207.603 228.419C205.528 232.656 207 240.361 207 245L207 284z"/>
<path style="fill:#010101; stroke:none;" d="M33 206L34 207L33 206z"/>
<path style="fill:#97b512; stroke:none;" d="M34.0039 207.031C30.9438 207.443 28.6348 210.192 28.1481 213.09C26.6977 221.727 26.795 234.346 28.1481 242.999C28.6646 246.302 31.179 250.168 34.9961 249.839C38.0813 249.573 40.3703 246.777 40.8519 243.91C42.3398 235.049 42.2975 221.907 40.8519 213.039C40.3264 209.816 37.601 206.546 34.0039 207.031z"/>
<path style="fill:#010101; stroke:none;" d="M244 214L245 215L244 214M241 215L242 216L241 215M167 218L168 219L167 218M364 223L365 224L364 223z"/>
<path style="fill:#97b512; stroke:none;" d="M359 227C361.251 234.357 366.507 233.238 372 230C368.809 223.327 364.806 223.609 359 227z"/>
<path style="fill:#010101; stroke:none;" d="M358 228L359 229L358 228M28 246L29 247L28 246z"/>
<path style="fill:#97b512; stroke:none;" d="M360.477 260.028C354.863 264.208 365.103 269.776 369.562 266.138C376.14 260.773 364.765 256.835 360.477 260.028z"/>
<path style="fill:#010101; stroke:none;" d="M171 276L172 277L171 276M228 276L229 277L228 276M174 277L175 278L174 277M225 277L226 278L225 277M222 278L223 279L222 278M171 288L172 289L171 288M174 289L175 290L174 289M225 289L226 290L225 289M222 290L223 291L222 290M199 297L200 298L199 297z"/>
<path style="fill:#ffffff; stroke:none;" d="M0 305L0 323L23 323C19.0627 320.857 14.7359 319.877 11 317.211C6.28457 313.845 3.62123 309.304 0 305M399 305C395.049 313.982 386.664 320.331 377 322C383.445 324.704 393.032 323 400 323C400 317.368 401.191 310.222 399 305z"/>
<path style="fill:#010101; stroke:none;" d="M12 318L13 319L12 318M16 320L17 321L16 320z"/>
</svg>
