<?xml version="1.0" standalone="yes"?>
<svg xmlns="http://www.w3.org/2000/svg" width="348" height="348">
<path style="fill:#ffffff; stroke:none;" d="M0 0L0 78C2.91259 71.248 3.18611 63.0599 5.6983 56C10.7481 41.8086 18.8252 30.5939 28.1968 19C34.0625 11.7433 39.2254 4.78687 48 1C43.2801 -0.98056 37.0802 0 32 0L0 0z"/>
<path style="fill:#97b512; stroke:none;" d="M48 0.638123C37.0351 3.78967 30.1058 15.6987 23.25 24C-6.95739 60.5763 -4.29277 108.596 13.4275 150C23.0252 172.425 37.8051 193.082 53.0008 212C64.2313 225.982 76.3254 239.325 89 252C97.8515 260.852 106.907 269.378 116 277.965C162.892 322.245 233.855 367.86 300 339.573C312.502 334.226 322.543 326.113 333 317.611C338.931 312.789 345.594 307.864 347.468 300C352.622 278.365 330.397 260.333 317 247.001C311.761 241.787 306.147 236.88 300 232.749C292.624 227.792 282.975 224.059 274 226.638C267.787 228.424 262.967 233.256 258 237.116C246.896 245.745 234.918 254.392 220 251.334C200.805 247.399 185.034 233.992 171 221.086C152.485 204.059 134.185 186.368 118.081 167C107.858 154.705 96.8617 139.64 96.1042 123C95.3778 107.045 107.051 98.6376 113.925 86C116.925 80.4841 116.564 73.1019 117.424 67C117.912 63.5386 119.114 59.4921 118.632 56C117.718 49.376 110.024 42.9892 106 38C96.2145 25.866 85.5405 13.524 72 5.45294C64.9956 1.27786 56.1918 -1.71637 48 0.638123z"/>
<path style="fill:#ffffff; stroke:none;" d="M60 0C64.9692 2.80771 70.2415 4.73334 75 8.03937C87.0202 16.3907 96.8713 27.6805 106 39C109.838 43.7594 116.098 49.1025 118.053 55C120.188 61.4402 117.083 74.4727 115.468 81C113.658 88.3104 106.929 93.9585 102.775 100C97.7784 107.265 95.1511 117.214 96.2894 126C98.2206 140.905 106.595 153.427 115.662 165C131.697 185.468 151.158 203.243 170 221.035C182.213 232.569 196.605 244.873 213 249.792C225.763 253.621 239.047 251.932 250 244.076C259.302 237.405 268.576 225.647 281 226.043C290.003 226.33 298.207 231.591 305 237.095C312.152 242.889 318.501 249.5 325 256C333.936 264.937 343.409 274.534 347 287C349.701 280.564 348 270.951 348 264L348 213C341.5 219.433 336.492 214.173 330 210.053C321.642 204.749 313.265 199.446 305 193.997C301.863 191.929 297.956 188.194 294 188.144C289.489 188.088 284.275 191.617 280 192.971C271.901 195.538 263.446 197.026 255 197.83C224.251 200.758 192.903 184.903 173.3 162C133.74 115.78 148.307 44.8809 199 13.8109C210.188 6.95364 223.758 1.5701 237 1C232.031 -1.08511 225.35 0 220 0L184 0L60 0z"/>
<path style="fill:#010101; stroke:none;" d="M237 0L238 1L237 0z"/>
<path style="fill:#97b512; stroke:none;" d="M238 0.425171C210.893 4.11496 186.648 16.9705 169.899 39C138.321 80.5337 145.884 143.934 187 176.331C209.021 193.682 236.448 200.274 264 196.844C271.094 195.961 278.316 194.089 285 191.575C288.006 190.444 292.124 187.71 295.424 188.667C299.161 189.751 302.758 193.22 306 195.308C313.656 200.239 321.311 205.174 329 210.053C333.014 212.601 338.572 217.978 343.786 216.664C350.095 215.073 348 202.729 348 198L348 137C348 115.029 350.666 91.2908 344.279 70C330.82 25.1406 284.866 -5.95428 238 0.425171z"/>
<path style="fill:#ffffff; stroke:none;" d="M261 0C270.497 4.09665 281.34 4.58197 291 9.25848C319.521 23.066 345.578 52.9688 347 86C350.105 78.6005 348 67.0074 348 59L348 0L261 0z"/>
<path style="fill:#010101; stroke:none;" d="M272 2L273 3L272 2M208 8L209 9L208 8z"/>
<path style="fill:#ffffff; stroke:none;" d="M37 26C49.0826 28.1538 59.5934 37.6347 68 46.0008C79.8345 57.7783 90.6491 69.1389 100 83C106.914 78.0716 110.41 67.3566 107.258 59C105.424 54.1353 100.692 49.9388 97.4136 46C88.866 35.7303 80.03 25.4422 69 17.7215C64.7117 14.7198 59.5206 11.1065 54 11.5031C46.4373 12.0463 40.6572 20.1531 37 26z"/>
<path style="fill:#010101; stroke:none;" d="M56 11L57 12L56 11z"/>
<path style="fill:#ffffff; stroke:none;" d="M337 201L337 124C337 104.624 337.997 85.4474 330.935 67C326.53 55.4927 319.483 45.1687 310.715 36.5764C302.073 28.1086 292.248 21.6589 281 17.2037C270.993 13.2399 259.787 11.0077 249 11.0077C186.061 11.0077 144.539 78.5608 169.59 135C175.202 147.644 184.338 158.796 195 167.535C214.613 183.612 242.33 189.514 267 184.551C272.871 183.37 278.524 181.557 284 179.138C287.418 177.628 291.104 175.05 295 175.329C300.044 175.691 304.959 180.307 309 183C318.162 189.105 327.387 195.648 337 201z"/>
<path style="fill:#010101; stroke:none;" d="M255 11L256 12L255 11M31 14L32 15L31 14M65 15L66 16L65 15M281 17L282 18L281 17M210 20L211 21L210 20M181 26L182 27L181 26M197 28L198 29L197 28M302 29L303 30L302 29M177 30L178 31L177 30M84 31L85 32L84 31M85 32L86 33L85 32M192 32L193 33L192 32M310 36L311 37L310 36z"/>
<path style="fill:#ffffff; stroke:none;" d="M29.1852 37.7431C25.8698 39.1718 24.2903 42.9891 22.7562 46C19.6085 52.1776 16.9332 58.3334 15.0008 65C5.47142 97.875 16.3771 130.825 31.7809 160C41.6333 178.661 54.6839 195.928 68.2747 212C78.9329 224.604 90.3353 236.335 102 248C110.811 256.811 119.623 265.505 129 273.715C136.772 280.52 144.819 287.043 153 293.349C194.024 324.969 257.653 356.46 306.941 322.676C314.779 317.304 309.414 307.054 305.226 301C299.803 293.16 292.837 286.645 286.169 279.925C279.372 273.075 272.42 265.767 264 260.877C260.997 259.132 257.566 257.222 254 257.209C247.266 257.185 240.766 261.949 234 262.841C221.364 264.507 209.356 261.745 198 256.03C183.228 248.597 170.979 237.243 159 226.09C146.505 214.455 134.294 202.67 122.83 190C108.936 174.643 94.1569 159.146 87.5193 139C84.7601 130.626 83.8262 120.69 85.669 112C87.5773 103.001 93.1917 96.1488 88.7261 87C84.1252 77.5739 76.3098 70.3098 69 63C62.5738 56.5738 56.4083 49.7487 49 44.4283C43.9219 40.7813 35.863 34.8654 29.1852 37.7431z"/>
<path style="fill:#010101; stroke:none;" d="M36 37L37 38L36 37M13 38L14 39L13 38M312 38L313 39L312 38M92 40L93 41L92 40M44 41L45 42L44 41M47 43L48 44L47 43M333 46L334 47L333 46M21 48L22 49L21 48M6 53L7 54L6 53M157 61L158 62L157 61M341 62L342 63L341 62M15 63L16 64L15 63M70 64L71 65L70 64M168 65L169 66L168 65M88 66L89 67L88 66M117 66L118 67L117 66M12 76L13 77L12 76M335 83L336 84L335 83M11 86L12 87L11 86M106 95L107 96L106 95z"/>
<path style="fill:#ffffff; stroke:none;" d="M0 105L0 348L242 348C234.463 344.617 224.991 344.219 217 341.656C201.875 336.805 187.61 329.51 174 321.396C144.002 303.512 117.58 279.58 93 255C64.5765 226.576 37.6486 195.758 18.7809 160C12.7302 148.533 7.89559 136.488 4.42438 124C2.72997 117.904 2.46844 110.722 0 105z"/>
<path style="fill:#010101; stroke:none;" d="M14 116L15 117L14 116M15 120L16 121L15 120M7 134L8 135L7 134M158 138L159 139L158 138M87 139L88 140L87 139M10 142L11 143L10 142M175 145L176 146L175 145M177 148L178 149L177 148M27 151L28 152L27 151M28 153L29 154L28 153M112 160L113 161L112 160M187 160L188 161L187 160M207 175L208 176L207 175M299 176L300 177L299 176M213 178L214 179L213 178M30 180L31 181L30 180M130 181L131 182L130 181M227 183L228 184L227 183M237 185L238 186L237 185M36 189L37 190L36 189M319 189L320 190L319 189M125 193L126 194L125 193M227 195L228 196L227 195M62 204L63 205L62 204M166 217L167 218L166 217M154 222L155 223L154 222M66 227L67 228L66 227M187 235L188 236L187 235M260 235L261 236L260 235M303 235L304 236L303 235z"/>
<path style="fill:#ffffff; stroke:none;" d="M265 247C268.958 251.288 274.445 254.123 279 257.805C285.457 263.024 291.138 269.138 297 275C306.981 284.981 319.487 296.408 322 311C331.193 306.713 337.707 293.88 332.683 284C330.458 279.624 326.473 275.793 323.389 272C315.508 262.305 306.959 252.85 297 245.236C292.31 241.65 286.276 237.052 280 237.503C273.95 237.938 269.521 243.558 265 247z"/>
<path style="fill:#010101; stroke:none;" d="M282 237L283 238L282 237M291 241L292 242L291 241M299 247L300 248L299 247M186 249L187 250L186 249M239 249L240 250L239 249M220 251L221 252L220 251M196 255L197 256L196 255M198 256L199 257L198 256M312 259L313 260L312 259M313 260L314 261L313 260M110 272L111 273L110 272M280 274L281 275L280 274M341 274L342 275L341 274M131 275L132 276L131 275M327 277L328 278L327 277M284 278L285 279L284 278M285 279L286 280L285 279M288 282L289 283L288 282M143 285L144 286L143 285M293 287L294 288L293 287M148 289L149 290L148 289z"/>
<path style="fill:#ffffff; stroke:none;" d="M347 300C344.407 308.729 336.715 313.704 330 319.25C313.73 332.688 293.915 346.045 272 347C278.678 349.802 288.784 348 296 348L348 348L348 316C348 310.92 348.981 304.72 347 300z"/>
<path style="fill:#010101; stroke:none;" d="M344 306L345 307L344 306M170 319L171 320L170 319M202 323L203 324L202 323M303 324L304 325L303 324M214 328L215 329L214 328M295 328L296 329L295 328M281 333L282 334L281 333M277 334L278 335L277 334M297 340L298 341L297 340M271 347L272 348L271 347z"/>
</svg>
